%YAML 1.1
%TAG !u! tag:unity3d.com,2011:
--- !u!114 &11400000
MonoBehaviour:
  m_ObjectHideFlags: 0
  m_PrefabParentObject: {fileID: 0}
  m_PrefabInternal: {fileID: 0}
  m_GameObject: {fileID: 0}
  m_Enabled: 1
  m_EditorHideFlags: 0
  m_Script: {fileID: 11500000, guid: 8ca0aa9835c2f8f4a9b2b5ff51784391, type: 1}
  m_Name: Theme2Configuration
  creationDate: 0
  _active: 0
  levels:
  - _sceneObject: {fileID: 102900000, guid: 3aca135e3fe36ca4b969b592250304ab, type: 1}
    _scenePath: Assets/Mad Level Manager/Themes/Theme2/Theme2Scene.unity
    _sceneName: Theme2Scene
    scene: 
    parent: {fileID: 11400000}
    order: 0
    name: Level Select
    type: 0
    arguments: 
    groupId: 0
    extensionGUID: 
    lockedByDefault: 1
  - _sceneObject: {fileID: 102900000, guid: 9b62e148e5db7844a84bcf6a71d260ea, type: 1}
    _scenePath: Assets/Mad Level Manager/Examples/Scenes/MadLevelTester.unity
    _sceneName: MadLevelTester
    scene: 
    parent: {fileID: 11400000}
    order: 10
    name: Level 1
    type: 1
    arguments: 
    groupId: 0
    extensionGUID: 
    lockedByDefault: 0
  - _sceneObject: {fileID: 102900000, guid: 9b62e148e5db7844a84bcf6a71d260ea, type: 1}
    _scenePath: Assets/Mad Level Manager/Examples/Scenes/MadLevelTester.unity
    _sceneName: MadLevelTester
    scene: 
    parent: {fileID: 11400000}
    order: 20
    name: Level 2
    type: 1
    arguments: 
    groupId: 0
    extensionGUID: 
    lockedByDefault: 1
  - _sceneObject: {fileID: 102900000, guid: 9b62e148e5db7844a84bcf6a71d260ea, type: 1}
    _scenePath: Assets/Mad Level Manager/Examples/Scenes/MadLevelTester.unity
    _sceneName: MadLevelTester
    scene: 
    parent: {fileID: 11400000}
    order: 30
    name: Level 3
    type: 1
    arguments: 
    groupId: 0
    extensionGUID: 
    lockedByDefault: 1
  - _sceneObject: {fileID: 102900000, guid: 9b62e148e5db7844a84bcf6a71d260ea, type: 1}
    _scenePath: Assets/Mad Level Manager/Examples/Scenes/MadLevelTester.unity
    _sceneName: MadLevelTester
    scene: 
    parent: {fileID: 11400000}
    order: 40
    name: Level 4
    type: 1
    arguments: 
    groupId: 0
    extensionGUID: 
    lockedByDefault: 1
  - _sceneObject: {fileID: 102900000, guid: 9b62e148e5db7844a84bcf6a71d260ea, type: 1}
    _scenePath: Assets/Mad Level Manager/Examples/Scenes/MadLevelTester.unity
    _sceneName: MadLevelTester
    scene: 
    parent: {fileID: 11400000}
    order: 50
    name: Level 5
    type: 1
    arguments: 
    groupId: 0
    extensionGUID: 
    lockedByDefault: 1
  - _sceneObject: {fileID: 102900000, guid: 9b62e148e5db7844a84bcf6a71d260ea, type: 1}
    _scenePath: Assets/Mad Level Manager/Examples/Scenes/MadLevelTester.unity
    _sceneName: MadLevelTester
    scene: 
    parent: {fileID: 11400000}
    order: 60
    name: Level 6
    type: 1
    arguments: 
    groupId: 0
    extensionGUID: 
    lockedByDefault: 1
  - _sceneObject: {fileID: 102900000, guid: 9b62e148e5db7844a84bcf6a71d260ea, type: 1}
    _scenePath: Assets/Mad Level Manager/Examples/Scenes/MadLevelTester.unity
    _sceneName: MadLevelTester
    scene: 
    parent: {fileID: 11400000}
    order: 70
    name: Level 7
    type: 1
    arguments: 
    groupId: 0
    extensionGUID: 
    lockedByDefault: 1
  - _sceneObject: {fileID: 102900000, guid: 9b62e148e5db7844a84bcf6a71d260ea, type: 1}
    _scenePath: Assets/Mad Level Manager/Examples/Scenes/MadLevelTester.unity
    _sceneName: MadLevelTester
    scene: 
    parent: {fileID: 11400000}
    order: 80
    name: Level 8
    type: 1
    arguments: 
    groupId: 0
    extensionGUID: 
    lockedByDefault: 1
  - _sceneObject: {fileID: 102900000, guid: 9b62e148e5db7844a84bcf6a71d260ea, type: 1}
    _scenePath: Assets/Mad Level Manager/Examples/Scenes/MadLevelTester.unity
    _sceneName: MadLevelTester
    scene: 
    parent: {fileID: 11400000}
    order: 90
    name: Level 9
    type: 1
    arguments: 
    groupId: 0
    extensionGUID: 
    lockedByDefault: 1
  - _sceneObject: {fileID: 102900000, guid: 9b62e148e5db7844a84bcf6a71d260ea, type: 1}
    _scenePath: Assets/Mad Level Manager/Examples/Scenes/MadLevelTester.unity
    _sceneName: MadLevelTester
    scene: 
    parent: {fileID: 11400000}
    order: 100
    name: Level 10
    type: 1
    arguments: 
    groupId: 0
    extensionGUID: 
    lockedByDefault: 1
  - _sceneObject: {fileID: 102900000, guid: 9b62e148e5db7844a84bcf6a71d260ea, type: 1}
    _scenePath: Assets/Mad Level Manager/Examples/Scenes/MadLevelTester.unity
    _sceneName: MadLevelTester
    scene: 
    parent: {fileID: 11400000}
    order: 110
    name: Level 11
    type: 1
    arguments: 
    groupId: 0
    extensionGUID: 
    lockedByDefault: 1
  - _sceneObject: {fileID: 102900000, guid: 9b62e148e5db7844a84bcf6a71d260ea, type: 1}
    _scenePath: Assets/Mad Level Manager/Examples/Scenes/MadLevelTester.unity
    _sceneName: MadLevelTester
    scene: 
    parent: {fileID: 11400000}
    order: 120
    name: Level 12
    type: 1
    arguments: 
    groupId: 0
    extensionGUID: 
    lockedByDefault: 1
  - _sceneObject: {fileID: 102900000, guid: 9b62e148e5db7844a84bcf6a71d260ea, type: 1}
    _scenePath: Assets/Mad Level Manager/Examples/Scenes/MadLevelTester.unity
    _sceneName: MadLevelTester
    scene: 
    parent: {fileID: 11400000}
    order: 130
    name: Level 13
    type: 1
    arguments: 
    groupId: 0
    extensionGUID: 
    lockedByDefault: 1
  - _sceneObject: {fileID: 102900000, guid: 9b62e148e5db7844a84bcf6a71d260ea, type: 1}
    _scenePath: Assets/Mad Level Manager/Examples/Scenes/MadLevelTester.unity
    _sceneName: MadLevelTester
    scene: 
    parent: {fileID: 11400000}
    order: 140
    name: Level 14
    type: 1
    arguments: 
    groupId: 0
    extensionGUID: 
    lockedByDefault: 1
  - _sceneObject: {fileID: 102900000, guid: 9b62e148e5db7844a84bcf6a71d260ea, type: 1}
    _scenePath: Assets/Mad Level Manager/Examples/Scenes/MadLevelTester.unity
    _sceneName: MadLevelTester
    scene: 
    parent: {fileID: 11400000}
    order: 150
    name: Level 15
    type: 1
    arguments: 
    groupId: 0
    extensionGUID: 
    lockedByDefault: 1
  - _sceneObject: {fileID: 102900000, guid: 9b62e148e5db7844a84bcf6a71d260ea, type: 1}
    _scenePath: Assets/Mad Level Manager/Examples/Scenes/MadLevelTester.unity
    _sceneName: MadLevelTester
    scene: 
    parent: {fileID: 11400000}
    order: 160
    name: Level 16
    type: 1
    arguments: 
    groupId: 0
    extensionGUID: 
    lockedByDefault: 1
  - _sceneObject: {fileID: 102900000, guid: 9b62e148e5db7844a84bcf6a71d260ea, type: 1}
    _scenePath: Assets/Mad Level Manager/Examples/Scenes/MadLevelTester.unity
    _sceneName: MadLevelTester
    scene: 
    parent: {fileID: 11400000}
    order: 170
    name: Level 17
    type: 1
    arguments: 
    groupId: 0
    extensionGUID: 
    lockedByDefault: 1
  - _sceneObject: {fileID: 102900000, guid: 9b62e148e5db7844a84bcf6a71d260ea, type: 1}
    _scenePath: Assets/Mad Level Manager/Examples/Scenes/MadLevelTester.unity
    _sceneName: MadLevelTester
    scene: 
    parent: {fileID: 11400000}
    order: 180
    name: Level 18
    type: 1
    arguments: 
    groupId: 0
    extensionGUID: 
    lockedByDefault: 1
  - _sceneObject: {fileID: 102900000, guid: 9b62e148e5db7844a84bcf6a71d260ea, type: 1}
    _scenePath: Assets/Mad Level Manager/Examples/Scenes/MadLevelTester.unity
    _sceneName: MadLevelTester
    scene: 
    parent: {fileID: 11400000}
    order: 190
    name: Level 19
    type: 1
    arguments: 
    groupId: 0
    extensionGUID: 
    lockedByDefault: 1
  - _sceneObject: {fileID: 102900000, guid: 9b62e148e5db7844a84bcf6a71d260ea, type: 1}
    _scenePath: Assets/Mad Level Manager/Examples/Scenes/MadLevelTester.unity
    _sceneName: MadLevelTester
    scene: 
    parent: {fileID: 11400000}
    order: 200
    name: Level 20
    type: 1
    arguments: 
    groupId: 0
    extensionGUID: 
    lockedByDefault: 1
  - _sceneObject: {fileID: 102900000, guid: 9b62e148e5db7844a84bcf6a71d260ea, type: 1}
    _scenePath: Assets/Mad Level Manager/Examples/Scenes/MadLevelTester.unity
    _sceneName: MadLevelTester
    scene: 
    parent: {fileID: 11400000}
    order: 210
    name: Level 21
    type: 1
    arguments: 
    groupId: 0
    extensionGUID: 
    lockedByDefault: 1
  - _sceneObject: {fileID: 102900000, guid: 9b62e148e5db7844a84bcf6a71d260ea, type: 1}
    _scenePath: Assets/Mad Level Manager/Examples/Scenes/MadLevelTester.unity
    _sceneName: MadLevelTester
    scene: 
    parent: {fileID: 11400000}
    order: 220
    name: Level 22
    type: 1
    arguments: 
    groupId: 0
    extensionGUID: 
    lockedByDefault: 1
  - _sceneObject: {fileID: 102900000, guid: 9b62e148e5db7844a84bcf6a71d260ea, type: 1}
    _scenePath: Assets/Mad Level Manager/Examples/Scenes/MadLevelTester.unity
    _sceneName: MadLevelTester
    scene: 
    parent: {fileID: 11400000}
    order: 230
    name: Level 23
    type: 1
    arguments: 
    groupId: 0
    extensionGUID: 
    lockedByDefault: 1
  - _sceneObject: {fileID: 102900000, guid: 9b62e148e5db7844a84bcf6a71d260ea, type: 1}
    _scenePath: Assets/Mad Level Manager/Examples/Scenes/MadLevelTester.unity
    _sceneName: MadLevelTester
    scene: 
    parent: {fileID: 11400000}
    order: 240
    name: Level 24
    type: 1
    arguments: 
    groupId: 0
    extensionGUID: 
    lockedByDefault: 1
  groups: []
  extensions: []
  version: 1
  flag: 0
