%YAML 1.1
%TAG !u! tag:unity3d.com,2011:
--- !u!114 &11400000
MonoBehaviour:
  m_ObjectHideFlags: 0
  m_PrefabParentObject: {fileID: 0}
  m_PrefabInternal: {fileID: 0}
  m_GameObject: {fileID: 0}
  m_Enabled: 1
  m_EditorHideFlags: 0
  m_Script: {fileID: 11500000, guid: 8ca0aa9835c2f8f4a9b2b5ff51784391, type: 1}
  m_Name: Example 7 Level Configuration
  creationDate: 0
  _active: 0
  levels:
  - _sceneObject: {fileID: 102900000, guid: 3f01dc581958f8a46ba917c09c87dfae, type: 1}
    _scenePath: Assets/Mad Level Manager/Examples/Example 7 - Multiple Backgrounds/Example7Scene.unity
    _sceneName: Example7Scene
    scene: 
    parent: {fileID: 11400000}
    order: 0
    name: Level Select
    type: 0
    arguments: 
    groupId: 0
    extensionGUID: 
    lockedByDefault: 1
  - _sceneObject: {fileID: 102900000, guid: 04e2a91307f201f4d92ee4df7f059bba, type: 1}
    _scenePath: Assets/Mad Level Manager/Examples/Stuff/Scenes/MadLevelTester2.unity
    _sceneName: MadLevelTester2
    scene: 
    parent: {fileID: 11400000}
    order: 10
    name: Level 1
    type: 1
    arguments: This is first level
    groupId: 0
    extensionGUID: 911cdbab-f491-4a66-9f4a-ec24f7279d39
    lockedByDefault: 0
  - _sceneObject: {fileID: 102900000, guid: 04e2a91307f201f4d92ee4df7f059bba, type: 1}
    _scenePath: Assets/Mad Level Manager/Examples/Stuff/Scenes/MadLevelTester2.unity
    _sceneName: MadLevelTester2
    scene: 
    parent: {fileID: 11400000}
    order: 20
    name: Level 2
    type: 1
    arguments: 
    groupId: 0
    extensionGUID: 911cdbab-f491-4a66-9f4a-ec24f7279d39
    lockedByDefault: 0
  - _sceneObject: {fileID: 102900000, guid: 04e2a91307f201f4d92ee4df7f059bba, type: 1}
    _scenePath: Assets/Mad Level Manager/Examples/Stuff/Scenes/MadLevelTester2.unity
    _sceneName: MadLevelTester2
    scene: 
    parent: {fileID: 11400000}
    order: 30
    name: Level 3
    type: 1
    arguments: Third
    groupId: 0
    extensionGUID: 911cdbab-f491-4a66-9f4a-ec24f7279d39
    lockedByDefault: 0
  - _sceneObject: {fileID: 102900000, guid: 04e2a91307f201f4d92ee4df7f059bba, type: 1}
    _scenePath: Assets/Mad Level Manager/Examples/Stuff/Scenes/MadLevelTester2.unity
    _sceneName: MadLevelTester2
    scene: 
    parent: {fileID: 11400000}
    order: 40
    name: Level 4
    type: 1
    arguments: 
    groupId: 0
    extensionGUID: 
    lockedByDefault: 1
  - _sceneObject: {fileID: 102900000, guid: 04e2a91307f201f4d92ee4df7f059bba, type: 1}
    _scenePath: Assets/Mad Level Manager/Examples/Stuff/Scenes/MadLevelTester2.unity
    _sceneName: MadLevelTester2
    scene: 
    parent: {fileID: 11400000}
    order: 50
    name: Level 5
    type: 1
    arguments: 
    groupId: 0
    extensionGUID: 
    lockedByDefault: 1
  - _sceneObject: {fileID: 102900000, guid: 04e2a91307f201f4d92ee4df7f059bba, type: 1}
    _scenePath: Assets/Mad Level Manager/Examples/Stuff/Scenes/MadLevelTester2.unity
    _sceneName: MadLevelTester2
    scene: 
    parent: {fileID: 11400000}
    order: 60
    name: Level 6
    type: 1
    arguments: 
    groupId: 0
    extensionGUID: 
    lockedByDefault: 1
  - _sceneObject: {fileID: 102900000, guid: 04e2a91307f201f4d92ee4df7f059bba, type: 1}
    _scenePath: Assets/Mad Level Manager/Examples/Stuff/Scenes/MadLevelTester2.unity
    _sceneName: MadLevelTester2
    scene: 
    parent: {fileID: 11400000}
    order: 70
    name: Level 7
    type: 1
    arguments: 
    groupId: 0
    extensionGUID: 
    lockedByDefault: 1
  - _sceneObject: {fileID: 102900000, guid: 04e2a91307f201f4d92ee4df7f059bba, type: 1}
    _scenePath: Assets/Mad Level Manager/Examples/Stuff/Scenes/MadLevelTester2.unity
    _sceneName: MadLevelTester2
    scene: 
    parent: {fileID: 11400000}
    order: 80
    name: Level 8
    type: 1
    arguments: 
    groupId: 0
    extensionGUID: 
    lockedByDefault: 1
  - _sceneObject: {fileID: 102900000, guid: 04e2a91307f201f4d92ee4df7f059bba, type: 1}
    _scenePath: Assets/Mad Level Manager/Examples/Stuff/Scenes/MadLevelTester2.unity
    _sceneName: MadLevelTester2
    scene: 
    parent: {fileID: 11400000}
    order: 90
    name: Level 9
    type: 1
    arguments: 
    groupId: 0
    extensionGUID: 
    lockedByDefault: 1
  - _sceneObject: {fileID: 102900000, guid: 04e2a91307f201f4d92ee4df7f059bba, type: 1}
    _scenePath: Assets/Mad Level Manager/Examples/Stuff/Scenes/MadLevelTester2.unity
    _sceneName: MadLevelTester2
    scene: 
    parent: {fileID: 11400000}
    order: 100
    name: Level 10
    type: 1
    arguments: 
    groupId: 0
    extensionGUID: 
    lockedByDefault: 1
  - _sceneObject: {fileID: 102900000, guid: 04e2a91307f201f4d92ee4df7f059bba, type: 1}
    _scenePath: Assets/Mad Level Manager/Examples/Stuff/Scenes/MadLevelTester2.unity
    _sceneName: MadLevelTester2
    scene: 
    parent: {fileID: 11400000}
    order: 110
    name: Level 11
    type: 1
    arguments: 
    groupId: 0
    extensionGUID: 
    lockedByDefault: 1
  - _sceneObject: {fileID: 102900000, guid: 04e2a91307f201f4d92ee4df7f059bba, type: 1}
    _scenePath: Assets/Mad Level Manager/Examples/Stuff/Scenes/MadLevelTester2.unity
    _sceneName: MadLevelTester2
    scene: 
    parent: {fileID: 11400000}
    order: 120
    name: Level 12
    type: 1
    arguments: 
    groupId: 0
    extensionGUID: 
    lockedByDefault: 1
  - _sceneObject: {fileID: 102900000, guid: 04e2a91307f201f4d92ee4df7f059bba, type: 1}
    _scenePath: Assets/Mad Level Manager/Examples/Stuff/Scenes/MadLevelTester2.unity
    _sceneName: MadLevelTester2
    scene: 
    parent: {fileID: 11400000}
    order: 130
    name: Level 13
    type: 1
    arguments: 
    groupId: 0
    extensionGUID: 
    lockedByDefault: 1
  - _sceneObject: {fileID: 102900000, guid: 04e2a91307f201f4d92ee4df7f059bba, type: 1}
    _scenePath: Assets/Mad Level Manager/Examples/Stuff/Scenes/MadLevelTester2.unity
    _sceneName: MadLevelTester2
    scene: 
    parent: {fileID: 11400000}
    order: 140
    name: Level 14
    type: 1
    arguments: 
    groupId: 0
    extensionGUID: 
    lockedByDefault: 1
  - _sceneObject: {fileID: 102900000, guid: 04e2a91307f201f4d92ee4df7f059bba, type: 1}
    _scenePath: Assets/Mad Level Manager/Examples/Stuff/Scenes/MadLevelTester2.unity
    _sceneName: MadLevelTester2
    scene: 
    parent: {fileID: 11400000}
    order: 150
    name: Level 15
    type: 1
    arguments: 
    groupId: 0
    extensionGUID: 
    lockedByDefault: 1
  - _sceneObject: {fileID: 102900000, guid: 04e2a91307f201f4d92ee4df7f059bba, type: 1}
    _scenePath: Assets/Mad Level Manager/Examples/Stuff/Scenes/MadLevelTester2.unity
    _sceneName: MadLevelTester2
    scene: 
    parent: {fileID: 11400000}
    order: 160
    name: Level 16
    type: 1
    arguments: 
    groupId: 0
    extensionGUID: 
    lockedByDefault: 1
  - _sceneObject: {fileID: 102900000, guid: 04e2a91307f201f4d92ee4df7f059bba, type: 1}
    _scenePath: Assets/Mad Level Manager/Examples/Stuff/Scenes/MadLevelTester2.unity
    _sceneName: MadLevelTester2
    scene: 
    parent: {fileID: 11400000}
    order: 170
    name: Level 17
    type: 1
    arguments: 
    groupId: 0
    extensionGUID: 
    lockedByDefault: 1
  - _sceneObject: {fileID: 102900000, guid: 04e2a91307f201f4d92ee4df7f059bba, type: 1}
    _scenePath: Assets/Mad Level Manager/Examples/Stuff/Scenes/MadLevelTester2.unity
    _sceneName: MadLevelTester2
    scene: 
    parent: {fileID: 11400000}
    order: 180
    name: Level 18
    type: 1
    arguments: 
    groupId: 0
    extensionGUID: 
    lockedByDefault: 1
  - _sceneObject: {fileID: 102900000, guid: 04e2a91307f201f4d92ee4df7f059bba, type: 1}
    _scenePath: Assets/Mad Level Manager/Examples/Stuff/Scenes/MadLevelTester2.unity
    _sceneName: MadLevelTester2
    scene: 
    parent: {fileID: 11400000}
    order: 190
    name: Level 19
    type: 1
    arguments: 
    groupId: 0
    extensionGUID: 
    lockedByDefault: 1
  - _sceneObject: {fileID: 102900000, guid: 04e2a91307f201f4d92ee4df7f059bba, type: 1}
    _scenePath: Assets/Mad Level Manager/Examples/Stuff/Scenes/MadLevelTester2.unity
    _sceneName: MadLevelTester2
    scene: 
    parent: {fileID: 11400000}
    order: 200
    name: Level 19 (1)
    type: 1
    arguments: 
    groupId: 0
    extensionGUID: 
    lockedByDefault: 1
  - _sceneObject: {fileID: 102900000, guid: 04e2a91307f201f4d92ee4df7f059bba, type: 1}
    _scenePath: Assets/Mad Level Manager/Examples/Stuff/Scenes/MadLevelTester2.unity
    _sceneName: MadLevelTester2
    scene: 
    parent: {fileID: 11400000}
    order: 210
    name: Level 19 (2)
    type: 1
    arguments: 
    groupId: 0
    extensionGUID: 
    lockedByDefault: 1
  - _sceneObject: {fileID: 102900000, guid: 04e2a91307f201f4d92ee4df7f059bba, type: 1}
    _scenePath: Assets/Mad Level Manager/Examples/Stuff/Scenes/MadLevelTester2.unity
    _sceneName: MadLevelTester2
    scene: 
    parent: {fileID: 11400000}
    order: 220
    name: Level 19 (3)
    type: 1
    arguments: 
    groupId: 0
    extensionGUID: 
    lockedByDefault: 1
  - _sceneObject: {fileID: 102900000, guid: 04e2a91307f201f4d92ee4df7f059bba, type: 1}
    _scenePath: Assets/Mad Level Manager/Examples/Stuff/Scenes/MadLevelTester2.unity
    _sceneName: MadLevelTester2
    scene: 
    parent: {fileID: 11400000}
    order: 230
    name: Level 19 (4)
    type: 1
    arguments: 
    groupId: 0
    extensionGUID: 
    lockedByDefault: 1
  - _sceneObject: {fileID: 102900000, guid: 04e2a91307f201f4d92ee4df7f059bba, type: 1}
    _scenePath: Assets/Mad Level Manager/Examples/Stuff/Scenes/MadLevelTester2.unity
    _sceneName: MadLevelTester2
    scene: 
    parent: {fileID: 11400000}
    order: 240
    name: Level 19 (5)
    type: 1
    arguments: 
    groupId: 0
    extensionGUID: 
    lockedByDefault: 1
  - _sceneObject: {fileID: 102900000, guid: 04e2a91307f201f4d92ee4df7f059bba, type: 1}
    _scenePath: Assets/Mad Level Manager/Examples/Stuff/Scenes/MadLevelTester2.unity
    _sceneName: MadLevelTester2
    scene: 
    parent: {fileID: 11400000}
    order: 250
    name: Level 19 (6)
    type: 1
    arguments: 
    groupId: 0
    extensionGUID: 
    lockedByDefault: 1
  - _sceneObject: {fileID: 102900000, guid: 04e2a91307f201f4d92ee4df7f059bba, type: 1}
    _scenePath: Assets/Mad Level Manager/Examples/Stuff/Scenes/MadLevelTester2.unity
    _sceneName: MadLevelTester2
    scene: 
    parent: {fileID: 11400000}
    order: 260
    name: Level 19 (7)
    type: 1
    arguments: 
    groupId: 0
    extensionGUID: 
    lockedByDefault: 1
  - _sceneObject: {fileID: 102900000, guid: 04e2a91307f201f4d92ee4df7f059bba, type: 1}
    _scenePath: Assets/Mad Level Manager/Examples/Stuff/Scenes/MadLevelTester2.unity
    _sceneName: MadLevelTester2
    scene: 
    parent: {fileID: 11400000}
    order: 270
    name: Level 19 (8)
    type: 1
    arguments: 
    groupId: 0
    extensionGUID: 
    lockedByDefault: 1
  - _sceneObject: {fileID: 102900000, guid: 04e2a91307f201f4d92ee4df7f059bba, type: 1}
    _scenePath: Assets/Mad Level Manager/Examples/Stuff/Scenes/MadLevelTester2.unity
    _sceneName: MadLevelTester2
    scene: 
    parent: {fileID: 11400000}
    order: 280
    name: Level 19 (9)
    type: 1
    arguments: 
    groupId: 0
    extensionGUID: 
    lockedByDefault: 1
  - _sceneObject: {fileID: 102900000, guid: 04e2a91307f201f4d92ee4df7f059bba, type: 1}
    _scenePath: Assets/Mad Level Manager/Examples/Stuff/Scenes/MadLevelTester2.unity
    _sceneName: MadLevelTester2
    scene: 
    parent: {fileID: 11400000}
    order: 290
    name: Level 19 (10)
    type: 1
    arguments: 
    groupId: 0
    extensionGUID: 
    lockedByDefault: 1
  - _sceneObject: {fileID: 102900000, guid: 04e2a91307f201f4d92ee4df7f059bba, type: 1}
    _scenePath: Assets/Mad Level Manager/Examples/Stuff/Scenes/MadLevelTester2.unity
    _sceneName: MadLevelTester2
    scene: 
    parent: {fileID: 11400000}
    order: 300
    name: Level 19 (11)
    type: 1
    arguments: 
    groupId: 0
    extensionGUID: 
    lockedByDefault: 1
  groups: []
  extensions:
  - name: loading screen
    guid: 911cdbab-f491-4a66-9f4a-ec24f7279d39
    scenesBefore:
    - _sceneObject: {fileID: 102900000, guid: 52fabab80b8a7b843bd420f130abed5d, type: 1}
      _scenePath: Assets/Mad Level Manager/Examples/Stuff/Scenes/LoadingScene.unity
      _sceneName: LoadingScene
      scene: 
    scenesAfter: []
  version: 1
  flag: 0
